{
    "version": 2,
    "projects": {
        "mobile-app": {
            "root": "apps/mobile-app",
            "sourceRoot": "apps/mobile-app/src",
            "projectType": "application",
            "targets": {
                "start": {
                    "executor": "@nrwl/react-native:start",
                    "options": {
                        "port": 8081
                    }
                },
                "serve": {
                    "executor": "@nrwl/workspace:run-commands",
                    "options": {
                        "command": "nx start mobile-app"
                    }
                },
                "run-ios": {
                    "executor": "@nrwl/react-native:run-ios",
                    "options": {}
                },
                "bundle-ios": {
                    "executor": "@nrwl/react-native:bundle",
                    "outputs": ["apps/mobile-app/build"],
                    "options": {
                        "entryFile": "apps/mobile-app/src/main.tsx",
                        "platform": "ios",
                        "bundleOutput": "dist/apps/mobile-app/ios/main.jsbundle"
                    }
                },
                "run-android": {
                    "executor": "@nrwl/react-native:run-android",
                    "options": {}
                },
                "build-android": {
                    "executor": "@nrwl/react-native:build-android",
                    "outputs": [
                        "apps/mobile-app/android/app/build/outputs/bundle",
                        "apps/mobile-app/android/app/build/outputs/apk"
                    ],
                    "options": {}
                },
                "bundle-android": {
                    "executor": "@nrwl/react-native:bundle",
                    "options": {
                        "entryFile": "apps/mobile-app/src/main.tsx",
                        "platform": "android",
                        "bundleOutput": "dist/apps/mobile-app/android/main.jsbundle"
                    }
                },
                "sync-deps": {
                    "executor": "@nrwl/react-native:sync-deps",
                    "options": {}
                },
                "ensure-symlink": {
                    "executor": "@nrwl/react-native:ensure-symlink",
                    "options": {}
                },
                "lint": {
                    "executor": "@nrwl/linter:eslint",
                    "outputs": ["{options.outputFile}"],
                    "options": {
                        "lintFilePatterns": [
                            "apps/mobile-app/**/*.{ts,tsx,js,jsx}"
                        ]
                    }
                },
                "test": {
                    "executor": "@nrwl/jest:jest",
                    "outputs": ["coverage/apps/mobile-app"],
                    "options": {
                        "jestConfig": "apps/mobile-app/jest.config.js",
                        "passWithNoTests": true
                    }
                }
            }
        },
        "mobile-app-e2e": {
            "root": "apps/mobile-app-e2e",
            "sourceRoot": "apps/mobile-app-e2e/src",
            "projectType": "application",
            "targets": {
                "build-ios": {
                    "executor": "@nrwl/detox:build",
                    "options": {
                        "detoxConfiguration": "ios.sim.debug"
                    },
                    "configurations": {
                        "production": {
                            "detoxConfiguration": "ios.sim.release"
                        }
                    }
                },
                "test-ios": {
                    "executor": "@nrwl/detox:test",
                    "options": {
                        "detoxConfiguration": "ios.sim.debug"
                    },
                    "configurations": {
                        "production": {
                            "detoxConfiguration": "ios.sim.release"
                        }
                    }
                },
                "build-android": {
                    "executor": "@nrwl/detox:build",
                    "options": {
                        "detoxConfiguration": "android.emu.debug"
                    },
                    "configurations": {
                        "production": {
                            "detoxConfiguration": "android.emu.release"
                        }
                    }
                },
                "test-android": {
                    "executor": "@nrwl/detox:test",
                    "options": {
                        "detoxConfiguration": "android.emu.debug"
                    },
                    "configurations": {
                        "production": {
                            "detoxConfiguration": "android.emu.release"
                        }
                    }
                },
                "lint": {
                    "executor": "@nrwl/linter:eslint",
                    "outputs": ["{options.outputFile}"],
                    "options": {
                        "lintFilePatterns": [
                            "apps/mobile-app-e2e/**/*.{ts,tsx,js,jsx}"
                        ]
                    }
                }
            }
        },
        "shared-feature-root-navigation": {
            "root": "libs/shared/feature/root-navigation",
            "sourceRoot": "libs/shared/feature/root-navigation/src",
            "projectType": "library",
            "targets": {
                "lint": {
                    "executor": "@nrwl/linter:eslint",
                    "outputs": ["{options.outputFile}"],
                    "options": {
                        "lintFilePatterns": [
                            "libs/shared/feature/root-navigation/**/*.{ts,tsx,js,jsx}"
                        ]
                    }
                },
                "test": {
                    "executor": "@nrwl/jest:jest",
                    "outputs": ["coverage/libs/shared/feature/root-navigation"],
                    "options": {
                        "jestConfig": "libs/shared/feature/root-navigation/jest.config.js",
                        "passWithNoTests": true
                    }
                }
            }
        },
        "shared-ui": {
            "root": "libs/shared/ui",
            "sourceRoot": "libs/shared/ui/src",
            "projectType": "library",
            "targets": {
                "lint": {
                    "executor": "@nrwl/linter:eslint",
                    "outputs": ["{options.outputFile}"],
                    "options": {
                        "lintFilePatterns": [
                            "libs/shared/ui/**/*.{ts,tsx,js,jsx}"
                        ]
                    }
                },
                "test": {
                    "executor": "@nrwl/jest:jest",
                    "outputs": ["coverage/libs/shared/ui"],
                    "options": {
                        "jestConfig": "libs/shared/ui/jest.config.js",
                        "passWithNoTests": true
                    }
                },
                "storybook": {
                    "executor": "@nrwl/storybook:storybook",
                    "options": {
                        "uiFramework": "@storybook/react",
                        "port": 4400,
                        "config": {
                            "configFolder": "libs/shared/ui/.storybook"
                        }
                    },
                    "configurations": {
                        "ci": {
                            "quiet": true
                        }
                    }
                },
                "build-storybook": {
                    "executor": "@nrwl/storybook:build",
                    "outputs": ["{options.outputPath}"],
                    "options": {
                        "uiFramework": "@storybook/react",
                        "outputPath": "dist/storybook/shared-ui",
                        "config": {
                            "configFolder": "libs/shared/ui/.storybook"
                        }
                    },
                    "configurations": {
                        "ci": {
                            "quiet": true
                        }
                    }
                }
            }
        },
        "shared-ui-core": {
            "root": "libs/shared/ui/core",
            "sourceRoot": "libs/shared/ui/core/src",
            "projectType": "library",
            "targets": {
                "lint": {
                    "executor": "@nrwl/linter:eslint",
                    "outputs": ["{options.outputFile}"],
                    "options": {
                        "lintFilePatterns": [
                            "libs/shared/ui/core/**/*.{ts,tsx,js,jsx}"
                        ]
                    }
                },
                "test": {
                    "executor": "@nrwl/jest:jest",
                    "outputs": ["coverage/libs/shared/ui/core"],
                    "options": {
                        "jestConfig": "libs/shared/ui/core/jest.config.js",
                        "passWithNoTests": true
                    }
                }
            }
        },
        "shared-ui-e2e": {
            "root": "libs/shared/ui/ui-e2e",
            "sourceRoot": "libs/shared/ui/ui-e2e/src",
            "projectType": "application",
            "targets": {
                "e2e": {
                    "executor": "@nrwl/cypress:cypress",
                    "options": {
                        "cypressConfig": "libs/shared/ui/ui-e2e/cypress.json",
                        "devServerTarget": "shared-ui:storybook"
                    },
                    "configurations": {
                        "ci": {
                            "devServerTarget": "shared-ui:storybook:ci"
                        }
                    }
                },
                "lint": {
                    "executor": "@nrwl/linter:eslint",
                    "outputs": ["{options.outputFile}"],
                    "options": {
                        "lintFilePatterns": [
                            "libs/shared/ui/ui-e2e/**/*.{js,ts}"
                        ]
                    }
                }
            }
        },
        "shared-ui-layout": {
            "root": "libs/shared/ui/layout",
            "sourceRoot": "libs/shared/ui/layout/src",
            "projectType": "library",
            "targets": {
                "lint": {
                    "executor": "@nrwl/linter:eslint",
                    "outputs": ["{options.outputFile}"],
                    "options": {
                        "lintFilePatterns": [
                            "libs/shared/ui/layout/**/*.{ts,tsx,js,jsx}"
                        ]
                    }
                },
                "test": {
                    "executor": "@nrwl/jest:jest",
                    "outputs": ["coverage/libs/shared/ui/layout"],
                    "options": {
                        "jestConfig": "libs/shared/ui/layout/jest.config.js",
                        "passWithNoTests": true
                    }
                }
            }
        },
        "shared-ui-theme": {
            "root": "libs/shared/ui/theme",
            "sourceRoot": "libs/shared/ui/theme/src",
            "projectType": "library",
            "targets": {
                "lint": {
                    "executor": "@nrwl/linter:eslint",
                    "outputs": ["{options.outputFile}"],
                    "options": {
                        "lintFilePatterns": [
                            "libs/shared/ui/theme/**/*.{ts,tsx,js,jsx}"
                        ]
                    }
                },
                "test": {
                    "executor": "@nrwl/jest:jest",
                    "outputs": ["coverage/libs/shared/ui/theme"],
                    "options": {
                        "jestConfig": "libs/shared/ui/theme/jest.config.js",
                        "passWithNoTests": true
                    }
                }
            }
        },
        "shared-util-i18n": {
            "root": "libs/shared/util/i18n",
            "sourceRoot": "libs/shared/util/i18n/src",
            "projectType": "library",
            "targets": {
                "lint": {
                    "executor": "@nrwl/linter:eslint",
                    "outputs": ["{options.outputFile}"],
                    "options": {
                        "lintFilePatterns": [
                            "libs/shared/util/i18n/**/*.{ts,tsx,js,jsx}"
                        ]
                    }
                },
                "test": {
                    "executor": "@nrwl/jest:jest",
                    "outputs": ["coverage/libs/shared/util/i18n"],
                    "options": {
                        "jestConfig": "libs/shared/util/i18n/jest.config.js",
                        "passWithNoTests": true
                    }
                }
            }
        },
        "web-app": {
            "root": "apps/web-app",
            "sourceRoot": "apps/web-app/src",
            "projectType": "application",
            "targets": {
                "build": {
                    "executor": "@nrwl/web:build",
                    "outputs": ["{options.outputPath}"],
                    "options": {
                        "outputPath": "dist/apps/web-app",
                        "index": "apps/web-app/src/index.html",
                        "baseHref": "/",
                        "main": "apps/web-app/src/main.tsx",
                        "polyfills": "apps/web-app/src/polyfills.ts",
                        "tsConfig": "apps/web-app/tsconfig.app.json",
                        "assets": [
                            "apps/web-app/src/favicon.ico",
                            "apps/web-app/src/assets",
                            {
                                "input": "libs/shared/ui/theme/src/assets",
                                "glob": "**/*",
                                "output": "assets"
                            }
                        ],
                        "styles": [],
                        "scripts": [],
                        "webpackConfig": "apps/web-app/webpack.config.js"
                    },
                    "configurations": {
                        "production": {
                            "fileReplacements": [
                                {
                                    "replace": "apps/web-app/src/environments/environment.ts",
                                    "with": "apps/web-app/src/environments/environment.prod.ts"
                                }
                            ],
                            "optimization": true,
                            "outputHashing": "all",
                            "sourceMap": false,
                            "extractCss": true,
                            "namedChunks": false,
                            "extractLicenses": true,
                            "vendorChunk": false,
                            "budgets": [
                                {
                                    "type": "initial",
                                    "maximumWarning": "500kb",
                                    "maximumError": "1mb"
                                }
                            ]
                        }
                    }
                },
                "serve": {
                    "executor": "@nrwl/web:dev-server",
                    "options": {
                        "buildTarget": "web-app:build",
                        "hmr": true
                    },
                    "configurations": {
                        "production": {
                            "buildTarget": "web-app:build:production",
                            "hmr": false
                        }
                    }
                },
                "lint": {
                    "executor": "@nrwl/linter:eslint",
                    "outputs": ["{options.outputFile}"],
                    "options": {
                        "lintFilePatterns": [
                            "apps/web-app/**/*.{ts,tsx,js,jsx}"
                        ]
                    }
                },
                "test": {
                    "executor": "@nrwl/jest:jest",
                    "outputs": ["coverage/apps/web-app"],
                    "options": {
                        "jestConfig": "apps/web-app/jest.config.js",
                        "passWithNoTests": true
                    }
                }
            }
        },
        "web-app-e2e": {
            "root": "apps/web-app-e2e",
            "sourceRoot": "apps/web-app-e2e/src",
            "projectType": "application",
            "targets": {
                "e2e": {
                    "executor": "@nrwl/cypress:cypress",
                    "options": {
                        "cypressConfig": "apps/web-app-e2e/cypress.json",
                        "devServerTarget": "web-app:serve"
                    },
                    "configurations": {
                        "production": {
                            "devServerTarget": "web-app:serve:production"
                        }
                    }
                },
                "lint": {
                    "executor": "@nrwl/linter:eslint",
                    "outputs": ["{options.outputFile}"],
                    "options": {
                        "lintFilePatterns": ["apps/web-app-e2e/**/*.{js,ts}"]
                    }
                }
            }
        }
    },
    "cli": {
        "defaultCollection": "@nrwl/react-native"
    },
    "generators": {
        "@nrwl/react": {
            "application": {
                "style": "none",
                "linter": "eslint",
                "babel": true
            },
            "component": {
                "style": "none"
            },
            "library": {
                "style": "none",
                "linter": "eslint"
            }
        }
    }
}
